…
Here, the clusters have been assigned to the segments, not to the
original documents as a whole. The `clusters_by_doc_table` allows to
display, for each original document, the number of segment belonging to
each cluster :

``` r
clusters_by_doc_table(corpus, clust_var = "cluster")
```

    ## # A tibble: 60 × 6
    ##    doc_id          clust_1 clust_2 clust_3 clust_4 clust_5
    ##    <chr>             <int>   <int>   <int>   <int>   <int>
    ##  1 1789-Washington       0       0       6      29       2
    ##  2 1793-Washington       0       0       4       0       0
    ##  3 1797-Adams            0       8       2      46       3
    ##  4 1801-Jefferson        0      18       2      22       2
    ##  5 1805-Jefferson        0       5       3      43       6
    ##  6 1809-Madison          0       0       7      17       4
    ##  7 1813-Madison          0       5       3      23       2
    ##  8 1817-Monroe           0       3      10      61      14
    ##  9 1821-Monroe           0       2      10      72      31
    ## 10 1825-Adams            0      10       8      49      10
    ## # ℹ 50 more rows

By adding `prop = TRUE`, the same table is displayed with row
percentages :

``` r
clusters_by_doc_table(corpus, clust_var = "cluster", prop = TRUE)
```

    ## # A tibble: 60 × 6
    ##    doc_id          clust_1 clust_2 clust_3 clust_4 clust_5
    ##    <chr>             <dbl>   <dbl>   <dbl>   <dbl>   <dbl>
    ##  1 1789-Washington       0    0      16.2     78.4    5.41
    ##  2 1793-Washington       0    0     100        0      0   
    ##  3 1797-Adams            0   13.6     3.39    78.0    5.08
    ##  4 1801-Jefferson        0   40.9     4.55    50      4.55
    ##  5 1805-Jefferson        0    8.77    5.26    75.4   10.5 
    ##  6 1809-Madison          0    0      25       60.7   14.3 
    ##  7 1813-Madison          0   15.2     9.09    69.7    6.06
    ##  8 1817-Monroe           0    3.41   11.4     69.3   15.9 
    ##  9 1821-Monroe           0    1.74    8.70    62.6   27.0 
    ## 10 1825-Adams            0   13.0    10.4     63.6   13.0 
    ## # ℹ 50 more rows
…
